Plan,KPI19,KPI13,KPI11,KPI25,KPI17,KPI1,KPI10,KPI2,KPI18,KPI22,KPI5,KPI8,KPI7,KPI23,KPI21,KPI3,KPI15,KPI24,KPI4,KPI14,KPI12,KPI6,KPI16,KPI9,KPI20
PlanA,"{'avg': 1761.1313313459366, 'med': 1774.6924040757813, 'perc95': 2325.5790725640336, 'min': 543.4640096035298, 'max': 2673.951839980549}","{'avg': 743.2447152615265, 'med': 744.3336253345122, 'perc95': 1116.4987381899866, 'min': 30.48327833594135, 'max': 1341.4592577814255}","{'avg': 23.493397684274843, 'med': 18.11067984594541, 'perc95': 384.4823138114568, 'min': -610.1984237714173, 'max': 691.3625462917994}","{'avg': 811.7823748199925, 'med': 819.7701404818494, 'perc95': 1518.1799096495758, 'min': -314.663476994838, 'max': 2230.236253494483}","{'avg': 2354.3423515280865, 'med': 2359.413061944853, 'perc95': 2772.7227286137404, 'min': 1309.8836188151595, 'max': 3074.5318792032776}","{'avg': 512.8383701107532, 'med': 476.00462331692563, 'perc95': 1956.8339725199783, 'min': -1986.9550074935146, 'max': 3320.392450472263}","{'avg': 11.691804546252737, 'med': 9.81661140381867, 'perc95': 667.2167288337237, 'min': -1318.2627961948945, 'max': 1502.2316038200524}","{'avg': 2392.106310576585, 'med': 2390.7689605255828, 'perc95': 3420.973255705012, 'min': 609.4590545282433, 'max': 4286.223540261389}","{'avg': 2985.462997359652, 'med': 2998.1243570631627, 'perc95': 3985.826526889011, 'min': 617.2319638243303, 'max': 5050.853027431562}","{'avg': 475.35775625342455, 'med': 467.60027478246104, 'perc95': 834.0303387092562, 'min': -173.55371675560974, 'max': 1334.9114330488935}","{'avg': 97.40441775504449, 'med': 91.77053387656406, 'perc95': 1511.301692767031, 'min': -2238.806086801689, 'max': 2935.0806741446454}","{'avg': 2405.8647368923384, 'med': 2397.1332917332666, 'perc95': 3039.458495983592, 'min': 1290.3501594837314, 'max': 3761.2455008590814}","{'avg': 495.39589945964315, 'med': 497.98902936663126, 'perc95': 611.1502411092597, 'min': 249.61558230339327, 'max': 788.7188635259962}","{'avg': 2425.0915298907275, 'med': 2416.0204352953106, 'perc95': 3618.0671751726686, 'min': 242.0756976613161, 'max': 5030.881451829846}","{'avg': 2982.2442170248505, 'med': 2970.026801829429, 'perc95': 3997.0820030209998, 'min': 643.2492327337181, 'max': 5012.493436538844}","{'avg': 929.9472782949396, 'med': 929.8192955677179, 'perc95': 1486.399489398367, 'min': -114.06378184741561, 'max': 1933.2486967138552}","{'avg': 2442.609213731269, 'med': 2450.006305163855, 'perc95': 3277.3816977434326, 'min': 723.7862235092268, 'max': 4055.808964667755}","{'avg': 280.9543920224066, 'med': 259.4088001005449, 'perc95': 1877.461327549328, 'min': -2536.5726950866165, 'max': 3899.1274405414406}","{'avg': 1958.4722579034176, 'med': 1967.2608082778113, 'perc95': 2711.848406313373, 'min': 745.5327164309595, 'max': 3343.8366657966008}","{'avg': 1976.2723366834284, 'med': 1951.6953208661578, 'perc95': 3239.450500207123, 'min': -572.6532698088436, 'max': 4490.478584540328}","{'avg': 2783.3172858257403, 'med': 2806.430374194611, 'perc95': 3710.7557238780355, 'min': 1185.8760615386782, 'max': 4621.038056097409}","{'avg': 2614.012468656229, 'med': 2613.06885226308, 'perc95': 2787.2771440840806, 'min': 2287.462465285145, 'max': 2951.932982128247}","{'avg': 2819.12977480507, 'med': 2824.408859794164, 'perc95': 3889.9376112183545, 'min': 981.4645820473318, 'max': 5332.896689632831}","{'avg': 2765.5884074013165, 'med': 2755.0044142522156, 'perc95': 4040.7040629078783, 'min': 575.9773319579317, 'max': 4835.395685267682}","{'avg': 599.9280146528064, 'med': 568.1007162744783, 'perc95': 2186.584414578749, 'min': -2372.6933823451604, 'max': 4066.6518811020924}"
PlanB,"{'avg': 1641.665913158225, 'med': 1647.6574209913426, 'perc95': 2305.5231083412705, 'min': 334.662294220989, 'max': 2860.2665697542525}","{'avg': 1265.9593013275623, 'med': 1265.8994809973206, 'perc95': 1624.8307435609931, 'min': 604.7587569253684, 'max': 1954.3144722635118}","{'avg': 2533.667195386338, 'med': 2534.1591961325507, 'perc95': 2896.5750994671507, 'min': 1968.175626670946, 'max': 3328.3753228718533}","{'avg': 2721.19123925391, 'med': 2705.815576586997, 'perc95': 4222.072037891476, 'min': 218.55118828724653, 'max': 6391.76709251487}","{'avg': 2926.351944026322, 'med': 2936.707204229191, 'perc95': 3748.4972382729165, 'min': 1644.2335223379748, 'max': 4514.464302934524}","{'avg': 1522.5309563751932, 'med': 1517.2496991126018, 'perc95': 2416.7290587928856, 'min': -262.6185966111616, 'max': 3052.6464232233675}","{'avg': 2852.4315232945487, 'med': 2850.606156080393, 'perc95': 3788.2243827602515, 'min': 502.20049607295414, 'max': 4826.305977586182}","{'avg': 197.17105150009107, 'med': 222.88394437060003, 'perc95': 1085.501604943111, 'min': -1477.4206323358208, 'max': 1779.6134855159473}","{'avg': 2184.669112643367, 'med': 2196.622673997528, 'perc95': 2624.12270620885, 'min': 1437.9608763886213, 'max': 3025.3341720948283}","{'avg': 2014.0157169249128, 'med': 2006.334985864816, 'perc95': 3125.4875154780166, 'min': -61.04128291494294, 'max': 4071.843315644085}","{'avg': 512.394876795014, 'med': 504.9829812320169, 'perc95': 1799.4976085344751, 'min': -2020.8457747835787, 'max': 2867.124614565733}","{'avg': 1130.6722882887439, 'med': 1091.5845963303573, 'perc95': 2612.5914629539134, 'min': -1949.2788617976641, 'max': 4072.1046829690686}","{'avg': 1202.6061132491395, 'med': 1169.7425738839827, 'perc95': 2364.5221482255415, 'min': -1172.229735733994, 'max': 3822.916094636952}","{'avg': 857.7384396314387, 'med': 859.0361926032454, 'perc95': 1933.2246506913655, 'min': -1056.8769580075368, 'max': 2536.139500334669}","{'avg': 644.9394431476879, 'med': 627.4359714654279, 'perc95': 1757.3262400208191, 'min': -1214.465435982208, 'max': 3080.6336604573057}","{'avg': 2270.52170748481, 'med': 2232.6277796384834, 'perc95': 3235.8386181286432, 'min': 520.4351915756852, 'max': 3628.142985918279}","{'avg': 1267.9267132623952, 'med': 1270.9204556894156, 'perc95': 1643.0303516296458, 'min': 604.8421253233483, 'max': 2325.7937429346543}","{'avg': 68.27444723854326, 'med': 62.928130311402015, 'perc95': 1048.475984143007, 'min': -1524.3859131955578, 'max': 1725.8862867691525}","{'avg': 2428.7994129368462, 'med': 2420.5851091655036, 'perc95': 3538.764951317853, 'min': 427.0431141839165, 'max': 4836.944376400383}","{'avg': 1672.9609836076127, 'med': 1679.8923040114366, 'perc95': 2130.5417291812187, 'min': 813.5474356959799, 'max': 2469.363602383375}","{'avg': 1293.3342902625543, 'med': 1310.7629662265956, 'perc95': 1863.1223464823554, 'min': 141.390743044793, 'max': 2317.3727489467556}","{'avg': 1830.8499569785608, 'med': 1830.245216175102, 'perc95': 1931.0608768164216, 'min': 1634.9296916455512, 'max': 1995.175642317416}","{'avg': 1459.1384937800547, 'med': 1432.7636437453489, 'perc95': 2685.1111940712794, 'min': -659.860595592663, 'max': 3996.4250572616183}","{'avg': 1634.9905665244285, 'med': 1624.2018327138017, 'perc95': 2365.1513352530446, 'min': 293.66312637988085, 'max': 3087.6764205333902}","{'avg': 1906.845919153068, 'med': 1912.4628578733748, 'perc95': 3037.757961063142, 'min': -309.4892000814614, 'max': 3878.674677963581}"
PlanC,"{'avg': 1171.7561790294794, 'med': 1172.9286640634089, 'perc95': 2071.3355845649908, 'min': -573.6954401311327, 'max': 3068.7124125338023}","{'avg': 444.4720048286875, 'med': 463.97108659140997, 'perc95': 1581.582662285748, 'min': -2265.7354430071982, 'max': 2340.4217434320058}","{'avg': 847.4230162551015, 'med': 852.8361335754365, 'perc95': 1179.4483736113114, 'min': 199.65523374601366, 'max': 1577.5013146521226}","{'avg': 2288.670770327166, 'med': 2284.0533292734713, 'perc95': 3391.4416286898313, 'min': 190.54918982811932, 'max': 4525.16991004046}","{'avg': 2335.7819326334666, 'med': 2346.89444376699, 'perc95': 3052.7680370664248, 'min': 1087.64719825722, 'max': 3722.5675164070826}","{'avg': 2735.6741028928577, 'med': 2746.656797201355, 'perc95': 3502.7700275489706, 'min': 1379.5739482935721, 'max': 4163.1156734471915}","{'avg': 1460.2342419187205, 'med': 1454.1924739808205, 'perc95': 1955.6160405952044, 'min': 646.1522884687082, 'max': 2348.364911442439}","{'avg': 699.6076505298535, 'med': 699.6616365979494, 'perc95': 830.523369589167, 'min': 408.12534302654007, 'max': 937.9835187852264}","{'avg': 2222.8623209592856, 'med': 2213.018736945284, 'perc95': 3466.547769905161, 'min': -401.01468250755715, 'max': 5203.5019869766365}","{'avg': 1714.3874956649809, 'med': 1745.3760427658237, 'perc95': 2992.0172977923685, 'min': -1100.3738672451161, 'max': 4131.021191837314}","{'avg': 2175.30404787068, 'med': 2207.148852110079, 'perc95': 3831.3616424330207, 'min': -994.7458274476126, 'max': 5072.639935916363}","{'avg': 737.6496621057776, 'med': 725.5580980354663, 'perc95': 1558.1865704471684, 'min': -561.7492915125837, 'max': 2264.6301296158217}","{'avg': 1780.05769458755, 'med': 1786.7839496582412, 'perc95': 2038.542618782056, 'min': 1299.3160880076816, 'max': 2278.6618547224934}","{'avg': 2585.877357214451, 'med': 2581.9875728923676, 'perc95': 3067.016005022308, 'min': 1800.1548897771095, 'max': 3542.5000653279785}","{'avg': 87.12823932963512, 'med': 104.34202921397033, 'perc95': 728.9843929316762, 'min': -1145.0631450823535, 'max': 1536.29278997061}","{'avg': 2353.6434541014173, 'med': 2351.4878294104856, 'perc95': 2506.313612484486, 'min': 2062.875637959416, 'max': 2610.378660283367}","{'avg': 2894.931177751418, 'med': 2897.980999592042, 'perc95': 2976.2209066400005, 'min': 2728.897037489196, 'max': 3071.2358873015983}","{'avg': 2090.936431047377, 'med': 2099.082563375062, 'perc95': 2521.1157223355144, 'min': 1279.6841065931271, 'max': 2761.4933112510844}","{'avg': 841.5255041464582, 'med': 874.0289469208021, 'perc95': 1424.2487701863954, 'min': -378.1288423805968, 'max': 2179.1340417097417}","{'avg': 433.6334042426445, 'med': 414.3181502071216, 'perc95': 1476.734837942925, 'min': -1413.0081109444804, 'max': 2254.5858212899166}","{'avg': 2669.8578497422523, 'med': 2669.232300545132, 'perc95': 2923.2030748212637, 'min': 2139.775682059265, 'max': 3190.1541826814114}","{'avg': 2651.5760710482077, 'med': 2642.2863358904324, 'perc95': 3495.5005052174097, 'min': 957.6910637713308, 'max': 4126.838104535018}","{'avg': 2550.043025486239, 'med': 2570.8795184673486, 'perc95': 3542.019425804758, 'min': 1105.1619139325674, 'max': 4429.977977412498}","{'avg': 2922.7620251317876, 'med': 2930.52700481167, 'perc95': 4222.2746538598985, 'min': 252.82863009706398, 'max': 5374.433483198918}","{'avg': 1809.513314546073, 'med': 1809.058813820002, 'perc95': 2097.2256888922884, 'min': 1247.6106781473218, 'max': 2377.56263938683}"
PlanD,"{'avg': 389.04017296030696, 'med': 394.6100658226876, 'perc95': 1807.9243744292182, 'min': -2064.490705657581, 'max': 3832.6340075801318}","{'avg': 2906.776363290809, 'med': 2909.362317313646, 'perc95': 4195.887949984362, 'min': 66.63162397124506, 'max': 5211.522238181913}","{'avg': 1400.52737560355, 'med': 1386.4482372110506, 'perc95': 2046.5207823285991, 'min': 62.37765838285577, 'max': 2507.0334527175337}","{'avg': 2171.350821558561, 'med': 2171.8656522257543, 'perc95': 2508.767538494744, 'min': 1614.0504451230456, 'max': 2743.0030611025213}","{'avg': 502.87306270169387, 'med': 506.9556390967368, 'perc95': 763.6347501642672, 'min': 19.66915946395312, 'max': 1005.7731324449487}","{'avg': 2970.8947635138393, 'med': 2969.9864764764943, 'perc95': 3833.018813446931, 'min': 532.0092444742149, 'max': 4446.993547383757}","{'avg': 475.7306767365068, 'med': 452.06569107254774, 'perc95': 1534.4709023333944, 'min': -1625.475760509961, 'max': 2710.755602426616}","{'avg': 1113.7230417282683, 'med': 1105.1252457702774, 'perc95': 2741.9777865829055, 'min': -1941.288820591749, 'max': 4158.297205413242}","{'avg': 261.99744327106123, 'med': 260.79882898598385, 'perc95': 356.4926905714086, 'min': 107.87978886266313, 'max': 439.61064059036386}","{'avg': 2600.4125465622733, 'med': 2596.2270045273017, 'perc95': 3940.0305967096447, 'min': 340.787421429161, 'max': 4881.689231719782}","{'avg': 1516.6779275087406, 'med': 1502.7575443503406, 'perc95': 1948.246023680214, 'min': 809.2989497272016, 'max': 2279.7488260456184}","{'avg': 676.594413695478, 'med': 675.7496261486561, 'perc95': 1346.850912488622, 'min': -810.4862173498699, 'max': 2111.6174645388573}","{'avg': 1145.9592223265065, 'med': 1162.5785986862256, 'perc95': 2606.3874063526637, 'min': -1480.4381123558937, 'max': 3600.2654632911735}","{'avg': 1465.9224394854068, 'med': 1459.027244883348, 'perc95': 1805.7386618374026, 'min': 924.5196901726912, 'max': 2002.1804661615797}","{'avg': 54.055450431277606, 'med': 48.030189201229376, 'perc95': 1112.4178699354834, 'min': -2067.462682890739, 'max': 2548.244432783507}","{'avg': 893.9690608546483, 'med': 888.2104259844413, 'perc95': 1328.0472045112738, 'min': 214.34337843928267, 'max': 1749.8804355119728}","{'avg': 56.54934543251734, 'med': 76.0703296314083, 'perc95': 902.7047937154135, 'min': -1455.213592797423, 'max': 1668.7367608244895}","{'avg': 851.6116189540762, 'med': 818.6356047096796, 'perc95': 2327.084731553859, 'min': -1599.6540654372584, 'max': 3822.6135173303373}","{'avg': 1311.2756425301086, 'med': 1333.9884711408915, 'perc95': 1898.9766048229526, 'min': 115.87613975528143, 'max': 2535.895729488436}","{'avg': 913.8620359388165, 'med': 903.7437264294255, 'perc95': 1836.4236293097415, 'min': -1255.6407346125914, 'max': 2479.6334681892467}","{'avg': 2871.5680227450107, 'med': 2870.8610273640775, 'perc95': 3009.0591645854165, 'min': 2603.798238783636, 'max': 3145.3931733646286}","{'avg': 1707.5532376288534, 'med': 1666.6089889954976, 'perc95': 2658.1662689931645, 'min': -142.8475822450837, 'max': 3493.371828657676}","{'avg': 652.6637479566632, 'med': 684.422083320794, 'perc95': 2199.5130045265223, 'min': -1984.15417638832, 'max': 3394.2246673802265}","{'avg': 2628.6593959087168, 'med': 2629.469079376132, 'perc95': 2744.3409334634453, 'min': 2403.401727779896, 'max': 2827.7045397625093}","{'avg': 113.32866242406146, 'med': 109.05926327027923, 'perc95': 571.2464337693632, 'min': -629.9092675750596, 'max': 947.2298393185184}"
