Plan,KPI19,KPI13,KPI11,KPI25,KPI17,KPI1,KPI10,KPI2,KPI18,KPI22,KPI5,KPI8,KPI7,KPI23,KPI21,KPI3,KPI15,KPI24,KPI4,KPI14,KPI12,KPI6,KPI16,KPI9,KPI20
PlanA,"{'avg': 1796.3456162765126, 'med': 1786.4529514345668, 'perc95': 2434.461876669088, 'min': 179.99639247958135, 'max': 2817.4137486268373}","{'avg': 748.5994321125366, 'med': 758.371727854383, 'perc95': 1119.1367044604553, 'min': 24.728282961742025, 'max': 1718.1637603369359}","{'avg': 33.60101284505731, 'med': 38.290334641985034, 'perc95': 350.6120740219375, 'min': -643.9144907969779, 'max': 701.0552238001274}","{'avg': 838.2713702690992, 'med': 837.1324898834774, 'perc95': 1464.595387676552, 'min': -626.5565704394667, 'max': 2031.1644547631768}","{'avg': 2379.008607856928, 'med': 2384.4533026189984, 'perc95': 2836.5794605704623, 'min': 1639.3911902470963, 'max': 3207.6870567903634}","{'avg': 459.11391481821937, 'med': 461.156251137161, 'perc95': 1847.8375549348852, 'min': -1983.793126761745, 'max': 3154.5140196793427}","{'avg': 22.95842289760174, 'med': 24.52559155561923, 'perc95': 665.1047005715145, 'min': -1421.598064998419, 'max': 1498.0242592821273}","{'avg': 2357.1283016303114, 'med': 2338.3423816471186, 'perc95': 3473.371424467003, 'min': 412.46543062093656, 'max': 4506.516244882043}","{'avg': 2956.0728355581236, 'med': 2954.499617914984, 'perc95': 4040.9450006771654, 'min': 861.7230807220835, 'max': 5267.165772374608}","{'avg': 463.18410773678255, 'med': 464.48195082189477, 'perc95': 835.75983691233, 'min': -81.49795844106524, 'max': 1044.9398391188631}","{'avg': 22.073043690537038, 'med': -31.10878992648435, 'perc95': 1358.676008463322, 'min': -2021.6745031350904, 'max': 2464.2560076446707}","{'avg': 2409.1567279284, 'med': 2422.8745948199467, 'perc95': 3067.550540926604, 'min': 938.4484294818601, 'max': 3694.8478173079075}","{'avg': 494.90877545904647, 'med': 493.71480811048946, 'perc95': 620.2237973637369, 'min': 246.6094353069761, 'max': 710.2238965727138}","{'avg': 2392.975006435965, 'med': 2370.4811100080515, 'perc95': 3615.5394747214777, 'min': -245.12087613723133, 'max': 4933.2276432309445}","{'avg': 2958.066801539903, 'med': 2947.6687774227867, 'perc95': 3993.1554502231493, 'min': 1116.1125489896456, 'max': 5338.871430711079}","{'avg': 920.9492065035616, 'med': 911.8020773195716, 'perc95': 1490.2288753053474, 'min': -143.93257507237445, 'max': 1875.3947771387939}","{'avg': 2425.496768940545, 'med': 2418.1689045159555, 'perc95': 3289.458739108471, 'min': 791.0197552813502, 'max': 4445.304786298158}","{'avg': 177.8801883583545, 'med': 144.34043727223397, 'perc95': 1802.611106255356, 'min': -2880.393877958544, 'max': 2900.2823022723765}","{'avg': 1954.8630029177223, 'med': 1956.2834982357906, 'perc95': 2695.548729942926, 'min': 785.8906524844158, 'max': 3267.834269727734}","{'avg': 1906.026948191473, 'med': 1905.523475829276, 'perc95': 3229.005675257857, 'min': -51.909641552243784, 'max': 4695.294130748216}","{'avg': 2740.3523918376127, 'med': 2754.991041725534, 'perc95': 3764.895239367747, 'min': 963.7813277300934, 'max': 4350.374806372562}","{'avg': 2612.4517996122136, 'med': 2615.5797048737372, 'perc95': 2786.82179185141, 'min': 2269.019333030446, 'max': 2975.1156386400444}","{'avg': 2864.1170713481215, 'med': 2882.312264804723, 'perc95': 3898.4458333756356, 'min': 1015.4382346149505, 'max': 5605.706112387942}","{'avg': 2771.7904583648383, 'med': 2765.0953774086747, 'perc95': 4073.044551755661, 'min': 407.56335444160004, 'max': 4814.00891001755}","{'avg': 594.1853500326937, 'med': 564.0368207160624, 'perc95': 2099.8725915438617, 'min': -2154.3263910242226, 'max': 2978.022070886726}"
PlanB,"{'avg': 1670.3079060917862, 'med': 1654.4602816023726, 'perc95': 2316.7048322665096, 'min': 446.5934835062717, 'max': 2984.4637163279685}","{'avg': 1263.2962799835536, 'med': 1256.033802565614, 'perc95': 1655.339522001926, 'min': 489.4063768406611, 'max': 2148.200492848355}","{'avg': 2529.27956053013, 'med': 2536.463181326762, 'perc95': 2873.0129191614105, 'min': 1945.5105148292096, 'max': 3115.1693009637265}","{'avg': 2671.2006803974014, 'med': 2648.2733553223816, 'perc95': 4121.831720905726, 'min': -67.48031914675585, 'max': 5806.494265358173}","{'avg': 2920.0931482703677, 'med': 2913.864845787121, 'perc95': 3732.2485324533363, 'min': 1407.5940523709903, 'max': 4713.460590343116}","{'avg': 1502.5667046544318, 'med': 1503.091121317731, 'perc95': 2381.2210949520895, 'min': 77.66107333068612, 'max': 3047.400075665697}","{'avg': 2844.1601182533386, 'med': 2855.0023539365234, 'perc95': 3756.7242646557766, 'min': 1073.2288859208913, 'max': 4580.810668723853}","{'avg': 173.944866813634, 'med': 158.92973524675034, 'perc95': 1035.806588990396, 'min': -1407.5379143797222, 'max': 1700.4048920241796}","{'avg': 2171.4648907418054, 'med': 2168.87521744353, 'perc95': 2602.041352152648, 'min': 1365.39005293408, 'max': 3082.697529903578}","{'avg': 2054.601315453641, 'med': 2059.4230061557805, 'perc95': 3174.288948975888, 'min': 470.7400467125294, 'max': 4367.839297842465}","{'avg': 485.5857231726014, 'med': 496.42785027225494, 'perc95': 1804.9369977427184, 'min': -1793.816420186804, 'max': 2655.046607484793}","{'avg': 1061.0917126499096, 'med': 1057.6786982793474, 'perc95': 2463.688196800004, 'min': -1771.012331634706, 'max': 4086.3756490983023}","{'avg': 1146.1301165897787, 'med': 1162.6042279802846, 'perc95': 2232.978596600944, 'min': -1135.484363266226, 'max': 3375.7977331431184}","{'avg': 812.0071759135109, 'med': 817.7778819457073, 'perc95': 1778.2959686734266, 'min': -1459.0316021307062, 'max': 2584.6317971061258}","{'avg': 615.8169357562706, 'med': 578.3645801152011, 'perc95': 1893.5840352995897, 'min': -1517.6382653922574, 'max': 2982.8824771887944}","{'avg': 2304.033175350702, 'med': 2296.450370167329, 'perc95': 3213.642619737373, 'min': 619.0601728977631, 'max': 4416.0720610726385}","{'avg': 1258.8434737530954, 'med': 1254.2459246613807, 'perc95': 1670.453642056746, 'min': 501.5869082129176, 'max': 2050.6153417741098}","{'avg': 30.50579089680324, 'med': 25.682001271947264, 'perc95': 889.6161438175077, 'min': -2069.5216201623657, 'max': 1955.776293738364}","{'avg': 2405.1280126232946, 'med': 2383.033558923666, 'perc95': 3492.981766123751, 'min': 403.59273930257973, 'max': 4286.6440752871285}","{'avg': 1683.2857709867492, 'med': 1685.1462632768548, 'perc95': 2118.979327863625, 'min': 836.8108434753075, 'max': 2367.1156354849095}","{'avg': 1314.8762151766036, 'med': 1306.1897607082, 'perc95': 1922.2719821544674, 'min': 342.2117959993235, 'max': 2386.7594550474964}","{'avg': 1829.719053118202, 'med': 1828.4515995360555, 'perc95': 1931.9144125775501, 'min': 1632.7951705849061, 'max': 2019.661849628442}","{'avg': 1493.6018780281474, 'med': 1482.3625492233189, 'perc95': 2751.645392309448, 'min': -1387.9600723748792, 'max': 4809.307441397357}","{'avg': 1596.7703694957713, 'med': 1600.7631841924958, 'perc95': 2336.063448786901, 'min': 235.8398173410617, 'max': 3250.268984567773}","{'avg': 1900.9045035808988, 'med': 1892.1337607274654, 'perc95': 2955.944083618835, 'min': -284.537570096845, 'max': 3884.6348227674594}"
PlanC,"{'avg': 1246.3999511605425, 'med': 1250.6877597484352, 'perc95': 2143.356387900464, 'min': -436.36696475194367, 'max': 2901.6820779154164}","{'avg': 428.8535518093079, 'med': 449.47757188649257, 'perc95': 1543.8519676971646, 'min': -1384.9470842389626, 'max': 2458.173988318899}","{'avg': 826.9939917490758, 'med': 823.7446166953234, 'perc95': 1174.558162844632, 'min': 201.38185206564071, 'max': 1524.6483836110897}","{'avg': 2312.9134890934383, 'med': 2316.8657552197446, 'perc95': 3335.3389142615347, 'min': 246.1986072368859, 'max': 4402.29798026822}","{'avg': 2302.2503110225207, 'med': 2330.0368356106155, 'perc95': 3057.5479745982584, 'min': 994.1290485619804, 'max': 3619.4939552934165}","{'avg': 2745.237743207148, 'med': 2749.9326330164586, 'perc95': 3624.90113332695, 'min': 995.1400472469672, 'max': 4593.76421515748}","{'avg': 1444.7285668089798, 'med': 1437.1304338901282, 'perc95': 1940.4769450675117, 'min': 657.6008161325486, 'max': 2524.5439661329874}","{'avg': 696.6126039054326, 'med': 697.8965723331713, 'perc95': 822.7892143395773, 'min': 470.8023726410004, 'max': 939.067418299725}","{'avg': 2219.0110721797328, 'med': 2201.430635135932, 'perc95': 3434.815257178255, 'min': -230.96106771765471, 'max': 4431.575060308518}","{'avg': 1688.7815351942554, 'med': 1678.3391823374088, 'perc95': 3017.2813716070623, 'min': -823.1257050952102, 'max': 4433.619677040303}","{'avg': 2214.0529494285433, 'med': 2216.015855979905, 'perc95': 3844.470091297146, 'min': -696.9021373361861, 'max': 4993.45572060526}","{'avg': 742.1196197171286, 'med': 754.8495148495391, 'perc95': 1601.2081468133163, 'min': -1050.5099617455016, 'max': 2273.6402880142477}","{'avg': 1769.6408093407772, 'med': 1770.5832050162367, 'perc95': 2025.7034122351643, 'min': 1322.5478338066278, 'max': 2218.9900079082663}","{'avg': 2594.4806243721646, 'med': 2597.611474423474, 'perc95': 3042.6805898816865, 'min': 1681.5918732955963, 'max': 3386.5541539981577}","{'avg': 90.92393455624278, 'med': 84.11089192014606, 'perc95': 750.5738439313911, 'min': -1332.868137598981, 'max': 1622.7694060981196}","{'avg': 2352.8448424552753, 'med': 2354.8827247866743, 'perc95': 2500.2757864210316, 'min': 2041.4443736584806, 'max': 2622.069111171267}","{'avg': 2893.050452274323, 'med': 2891.2366430286447, 'perc95': 2977.6120491736083, 'min': 2746.1625955144036, 'max': 3041.412758833822}","{'avg': 2095.7573683131814, 'med': 2093.8811081737713, 'perc95': 2505.9314654792965, 'min': 1387.4835930570202, 'max': 2843.071861970526}","{'avg': 834.0133644350875, 'med': 862.5009360559162, 'perc95': 1474.944862837305, 'min': -329.0368338382441, 'max': 1900.604074766105}","{'avg': 428.72105138336, 'med': 429.1890598000861, 'perc95': 1458.900359107749, 'min': -1616.6278396909313, 'max': 2079.0956513973206}","{'avg': 2679.2571900519492, 'med': 2686.2195174900344, 'perc95': 2936.3235479229647, 'min': 2218.935907620206, 'max': 3168.121500324568}","{'avg': 2651.19631283775, 'med': 2645.8912210581557, 'perc95': 3458.7990231688423, 'min': 1203.6884231604556, 'max': 4031.8005830534644}","{'avg': 2542.722396760841, 'med': 2524.475272126096, 'perc95': 3525.1559100940945, 'min': 271.9414213468863, 'max': 4439.052564737255}","{'avg': 2978.0331329289556, 'med': 2982.9122802661927, 'perc95': 4247.589651952811, 'min': 554.5710399104951, 'max': 5050.340356626524}","{'avg': 1804.5579728332334, 'med': 1804.883289671421, 'perc95': 2103.9672810713864, 'min': 1195.47635084093, 'max': 2398.8750371854876}"
PlanD,"{'avg': 353.26106271065095, 'med': 351.28165582225137, 'perc95': 1756.7021078570206, 'min': -2207.289342113539, 'max': 2929.8519158330023}","{'avg': 2907.110707399775, 'med': 2914.983121229318, 'perc95': 4167.565058190674, 'min': 315.91756607914976, 'max': 5326.6448912542655}","{'avg': 1396.9436992025321, 'med': 1415.272613229747, 'perc95': 1971.3998164959198, 'min': 219.15040045583441, 'max': 2556.360738690762}","{'avg': 2162.9795602517997, 'med': 2155.7808281103225, 'perc95': 2491.151416108809, 'min': 1583.4513275532713, 'max': 2870.932691806197}","{'avg': 506.42292303703874, 'med': 507.4972149877473, 'perc95': 782.6154628245379, 'min': -63.25449247745803, 'max': 1037.3120759823832}","{'avg': 2996.365047067984, 'med': 3015.1299706913137, 'perc95': 3886.2558105896724, 'min': 1432.30481515837, 'max': 4670.290317229888}","{'avg': 455.7693866822594, 'med': 439.8228853762759, 'perc95': 1508.0896008097143, 'min': -1411.8382668905451, 'max': 2555.6998289701955}","{'avg': 984.4952442502333, 'med': 934.912648410403, 'perc95': 2683.221700508201, 'min': -1795.8343952208972, 'max': 4248.87305915809}","{'avg': 258.73002047377867, 'med': 259.37807584318296, 'perc95': 353.4678800134461, 'min': 72.0121902644178, 'max': 438.8626249397987}","{'avg': 2622.280891121057, 'med': 2647.1977222699497, 'perc95': 3911.9108509119596, 'min': 470.02478300562007, 'max': 4882.3290297353615}","{'avg': 1520.0686696753878, 'med': 1518.8090654699238, 'perc95': 1938.2818992415996, 'min': 805.5040219961296, 'max': 2280.0900371072375}","{'avg': 680.135284682096, 'med': 670.889287151418, 'perc95': 1387.833585456723, 'min': -525.2768849033054, 'max': 1888.436987857453}","{'avg': 1178.6332120180373, 'med': 1153.3554187496247, 'perc95': 2603.3670857688394, 'min': -1607.8777348043313, 'max': 3575.132651612653}","{'avg': 1479.4390306126265, 'med': 1489.7846080341633, 'perc95': 1856.2968969800222, 'min': 754.1011989579457, 'max': 2120.8614363879524}","{'avg': 67.48046691904314, 'med': 72.92286915111329, 'perc95': 1090.2330203605466, 'min': -2333.1811975942583, 'max': 2109.8127716200797}","{'avg': 884.48616397427, 'med': 888.2217104761577, 'perc95': 1278.8043707118404, 'min': 191.6601912869652, 'max': 1703.3768228430124}","{'avg': 48.17376992377819, 'med': 18.777747646293605, 'perc95': 967.3522657554233, 'min': -1716.825105102003, 'max': 2053.527481070225}","{'avg': 827.7914740620843, 'med': 786.0086368322992, 'perc95': 2285.4967367223785, 'min': -1854.015370915538, 'max': 3687.5751293383887}","{'avg': 1345.329497597429, 'med': 1355.1604097226075, 'perc95': 1994.509872966326, 'min': -78.33784780031647, 'max': 2689.5518930197186}","{'avg': 890.8922922088011, 'med': 895.9086201006546, 'perc95': 1808.7950432602906, 'min': -745.6317004121836, 'max': 2652.6889350529304}","{'avg': 2869.404637178027, 'med': 2870.7631186446324, 'perc95': 3007.6606356809225, 'min': 2616.818112989911, 'max': 3112.898229615924}","{'avg': 1678.476762155616, 'med': 1692.8009336101436, 'perc95': 2631.148487113601, 'min': -234.04760062883543, 'max': 3240.153794461895}","{'avg': 655.982918160288, 'med': 646.3418230343569, 'perc95': 2103.291247642789, 'min': -2001.000433081748, 'max': 3504.510467617637}","{'avg': 2633.3098695922076, 'med': 2632.794547856523, 'perc95': 2736.525972529354, 'min': 2456.3917045620906, 'max': 2881.692933603633}","{'avg': 99.8206100876398, 'med': 97.48035885130247, 'perc95': 563.5711332057898, 'min': -909.0753346650915, 'max': 892.667680649946}"
