Plan,KPI19,KPI13,KPI11,KPI25,KPI17,KPI1,KPI10,KPI2,KPI18,KPI22,KPI5,KPI8,KPI7,KPI23,KPI21,KPI3,KPI15,KPI24,KPI4,KPI14,KPI12,KPI6,KPI16,KPI9,KPI20
PlanA,"{'avg': 1770.6264605383894, 'med': 1773.5081358196783, 'perc95': 2395.6625772376015, 'min': 554.1588242019936, 'max': 2765.475827005857}","{'avg': 754.5872883351415, 'med': 757.4972744418509, 'perc95': 1127.5085862082528, 'min': -131.46626677067752, 'max': 1412.0210461370175}","{'avg': 36.20327646948582, 'med': 50.22224078810592, 'perc95': 373.38904347718864, 'min': -516.9770172275382, 'max': 736.9679700630877}","{'avg': 780.219008895976, 'med': 772.9891024909158, 'perc95': 1417.5119040378454, 'min': -399.74122684166673, 'max': 1973.106692424947}","{'avg': 2348.4335741595632, 'med': 2344.7898000583523, 'perc95': 2793.3118643819607, 'min': 1584.537740953468, 'max': 3302.563857074785}","{'avg': 508.5491210725881, 'med': 559.6330211237589, 'perc95': 1921.7349898106067, 'min': -2092.2146432815284, 'max': 3111.5363247489063}","{'avg': 56.991344579501416, 'med': 60.094093483160066, 'perc95': 738.2192080130967, 'min': -1013.3633713490585, 'max': 1494.131309891294}","{'avg': 2364.5842903461253, 'med': 2365.551114922669, 'perc95': 3515.848628900805, 'min': 448.72529164199545, 'max': 4340.872178879984}","{'avg': 3031.3974070626105, 'med': 3030.819082833984, 'perc95': 4082.9239877588034, 'min': 1027.1860446973676, 'max': 5324.900217685623}","{'avg': 474.4237630078714, 'med': 476.9822572402509, 'perc95': 852.291121736005, 'min': -216.71035452482437, 'max': 1089.22771480732}","{'avg': 35.05380444736983, 'med': 39.81215740603615, 'perc95': 1370.468704859788, 'min': -2292.0414308303634, 'max': 3343.089014304704}","{'avg': 2420.1551241240213, 'med': 2426.2649537469642, 'perc95': 3087.6935801007867, 'min': 1307.0798795982146, 'max': 3561.4342795532357}","{'avg': 491.39493817531695, 'med': 493.81253969730795, 'perc95': 621.8859058001904, 'min': 176.99529358418653, 'max': 756.0217466690535}","{'avg': 2425.203233575035, 'med': 2394.9317890524544, 'perc95': 3617.080257417192, 'min': 158.14976724311646, 'max': 4428.502057173021}","{'avg': 2972.3860904958256, 'med': 2938.716166107555, 'perc95': 4077.466208436799, 'min': 815.2300301812484, 'max': 5307.918958702261}","{'avg': 916.6279032401039, 'med': 914.9582901903796, 'perc95': 1489.3318549380083, 'min': -215.98500209254166, 'max': 2138.7966614467055}","{'avg': 2407.0017077812167, 'med': 2394.1390596311358, 'perc95': 3245.496772308441, 'min': 774.3064897748088, 'max': 4054.6778209515696}","{'avg': 194.70501991846538, 'med': 176.3261208117713, 'perc95': 1855.111569934478, 'min': -2445.881653236867, 'max': 3471.9516864401567}","{'avg': 1934.0350153357172, 'med': 1923.7351944603356, 'perc95': 2620.628767622952, 'min': 758.2469627973769, 'max': 3304.9552723990555}","{'avg': 2018.8518089253296, 'med': 2042.182305800533, 'perc95': 3214.144648570913, 'min': -455.45063751118414, 'max': 5013.9587937487595}","{'avg': 2744.4658034145705, 'med': 2736.8021784886037, 'perc95': 3702.0331858403724, 'min': 685.6447324411465, 'max': 4329.740235314123}","{'avg': 2607.257814571821, 'med': 2603.855645288296, 'perc95': 2772.0664759008896, 'min': 2192.9000465877543, 'max': 2953.6188918177672}","{'avg': 2844.2644833511918, 'med': 2871.563261869877, 'perc95': 3880.877205335776, 'min': 1008.3567704915044, 'max': 4945.64233362352}","{'avg': 2756.793861228196, 'med': 2753.136154996804, 'perc95': 4044.7480884087495, 'min': 183.1971061356694, 'max': 5379.020235563947}","{'avg': 607.1686937417641, 'med': 580.3648829019629, 'perc95': 2189.922654734225, 'min': -2032.2607280653697, 'max': 3594.616841331008}"
PlanB,"{'avg': 1641.9064799819462, 'med': 1649.51765712448, 'perc95': 2315.700779976934, 'min': 488.84697520173813, 'max': 2954.2535204204723}","{'avg': 1281.7809674583389, 'med': 1283.5253889358457, 'perc95': 1652.6628307241156, 'min': 515.1178524471356, 'max': 1875.7923575432542}","{'avg': 2519.8007794626624, 'med': 2523.6889441532726, 'perc95': 2844.2091010158138, 'min': 1821.8294049302165, 'max': 3225.0626881429453}","{'avg': 2622.779029603007, 'med': 2627.572271269621, 'perc95': 4039.1072916839216, 'min': -200.369194908787, 'max': 4988.565319226361}","{'avg': 2897.2953854957273, 'med': 2898.3662265865155, 'perc95': 3720.433752805595, 'min': 1282.0279676580544, 'max': 4532.067645814734}","{'avg': 1502.1257149988703, 'med': 1500.5187420268476, 'perc95': 2319.0423772786366, 'min': -305.524707404285, 'max': 3015.3184742667236}","{'avg': 2824.021324579819, 'med': 2824.991962383481, 'perc95': 3849.2914578215746, 'min': 445.4751767798771, 'max': 5114.73197156776}","{'avg': 139.2200636782119, 'med': 153.4726337649489, 'perc95': 995.2528135200662, 'min': -1350.8243260466095, 'max': 1664.7281715735903}","{'avg': 2165.103255071155, 'med': 2170.790906791499, 'perc95': 2606.740704889759, 'min': 1296.3131580775103, 'max': 3033.8101757809445}","{'avg': 2026.2213096105509, 'med': 2009.0670101650007, 'perc95': 3038.5441706903475, 'min': -146.68753862946573, 'max': 3852.342062705647}","{'avg': 509.7680198040309, 'med': 511.77162539128375, 'perc95': 1730.1062231434273, 'min': -2068.793070183528, 'max': 3058.4645776687885}","{'avg': 1114.2708507368027, 'med': 1111.8474711253036, 'perc95': 2527.119813442523, 'min': -1604.4092451902595, 'max': 4096.29100161523}","{'avg': 1205.6713224477548, 'med': 1177.2338587254985, 'perc95': 2396.4122927806366, 'min': -864.7634378878777, 'max': 3230.9633711105075}","{'avg': 873.3120690866119, 'med': 891.2589368293691, 'perc95': 1788.5830723134459, 'min': -1222.6784480702722, 'max': 2591.3717652690393}","{'avg': 671.3899460721366, 'med': 636.2848041468704, 'perc95': 1811.5789312821753, 'min': -1252.4373348640902, 'max': 2595.9385488123107}","{'avg': 2245.291165596175, 'med': 2256.6939195391806, 'perc95': 3133.7174858879594, 'min': 50.47514431890795, 'max': 3865.754439018557}","{'avg': 1247.1004411173471, 'med': 1253.5812107023598, 'perc95': 1623.9293706053365, 'min': 234.04805096787868, 'max': 2054.369808281065}","{'avg': 22.642015127616084, 'med': -4.859688887831652, 'perc95': 1002.203949823903, 'min': -2156.5983539084796, 'max': 1882.2796009993713}","{'avg': 2387.103585636373, 'med': 2409.1230625292405, 'perc95': 3459.996734656682, 'min': -11.365273707440338, 'max': 4241.890546331171}","{'avg': 1671.656918703815, 'med': 1657.9789889358826, 'perc95': 2108.9200148204036, 'min': 772.5022065696849, 'max': 2555.6162484609586}","{'avg': 1303.7124389558319, 'med': 1292.501023847436, 'perc95': 1905.3907080664776, 'min': 114.06932828869049, 'max': 2399.296810364953}","{'avg': 1830.9440183231968, 'med': 1831.6012658593336, 'perc95': 1939.066186704954, 'min': 1647.2966262319235, 'max': 2029.4407680536835}","{'avg': 1453.3916004220594, 'med': 1463.7446245746428, 'perc95': 2694.9062175127838, 'min': -609.3640149461983, 'max': 3271.175517459816}","{'avg': 1652.1306931925726, 'med': 1651.6655747032949, 'perc95': 2366.6623754134343, 'min': 246.9656865466652, 'max': 2846.978224453012}","{'avg': 1894.8213008603677, 'med': 1894.4938208437545, 'perc95': 3026.142099264618, 'min': 23.71798211332043, 'max': 3915.295128155282}"
PlanC,"{'avg': 1180.6239532973473, 'med': 1194.150968953678, 'perc95': 2084.697442591116, 'min': -338.1131524048403, 'max': 3081.449968029113}","{'avg': 447.66246298246443, 'med': 455.06850776173, 'perc95': 1545.4759408456919, 'min': -1742.767074686084, 'max': 2461.8639483744973}","{'avg': 856.1214607313512, 'med': 850.7998671150731, 'perc95': 1217.8315781424453, 'min': 202.07357675750166, 'max': 1546.8063605991947}","{'avg': 2299.3695689626948, 'med': 2305.0168321112237, 'perc95': 3429.8746101895463, 'min': 298.90812398339995, 'max': 4077.837443388269}","{'avg': 2344.018889095578, 'med': 2335.5183475585345, 'perc95': 3049.762916241738, 'min': 1022.3553354793339, 'max': 3752.655518513822}","{'avg': 2776.511803219044, 'med': 2769.155671024643, 'perc95': 3581.1652296244893, 'min': 1282.115882678621, 'max': 4415.94520010689}","{'avg': 1453.488653744083, 'med': 1451.4993720171, 'perc95': 1958.1957648378673, 'min': 432.0526043969968, 'max': 2331.7343858823588}","{'avg': 706.3726908056394, 'med': 706.2410388161978, 'perc95': 840.1075849543424, 'min': 450.09989038750246, 'max': 951.0203403063128}","{'avg': 2251.4624810184405, 'med': 2302.044705082145, 'perc95': 3387.4761571399367, 'min': 223.40412721393318, 'max': 4624.108081873017}","{'avg': 1718.991022380765, 'med': 1684.0724557546027, 'perc95': 3077.6380490148554, 'min': -955.7301065881818, 'max': 4430.937875606153}","{'avg': 2141.6693357102213, 'med': 2113.5323567280866, 'perc95': 3784.885816239434, 'min': -792.0942034900509, 'max': 5129.4824686956235}","{'avg': 756.1297720896068, 'med': 757.1572431290206, 'perc95': 1629.8150746545741, 'min': -1200.2892214173712, 'max': 2621.655990929466}","{'avg': 1767.7517047187996, 'med': 1752.2568331263144, 'perc95': 2031.70196080383, 'min': 1217.878285864496, 'max': 2268.132735626229}","{'avg': 2577.535896378864, 'med': 2580.2879029417186, 'perc95': 3033.7946295337583, 'min': 1543.8867485832588, 'max': 3272.7752272247044}","{'avg': 71.65262609291375, 'med': 74.89248744980574, 'perc95': 784.1371380312626, 'min': -1126.143638747372, 'max': 1512.1125192758093}","{'avg': 2350.1427208792943, 'med': 2352.090958633813, 'perc95': 2496.729591041961, 'min': 2054.5339008767737, 'max': 2581.0277878968745}","{'avg': 2894.191026440813, 'med': 2892.212536495647, 'perc95': 2974.372731619035, 'min': 2762.050449551565, 'max': 3038.3995810855304}","{'avg': 2091.1646065484088, 'med': 2094.304982659958, 'perc95': 2493.663535186787, 'min': 1110.582205856238, 'max': 2794.3594116586087}","{'avg': 837.9374905650768, 'med': 815.4343092302063, 'perc95': 1521.6625842488602, 'min': -237.50231925425533, 'max': 2059.960970569239}","{'avg': 430.53532085670753, 'med': 437.70947750825957, 'perc95': 1491.7703138179195, 'min': -1323.507439842745, 'max': 2436.8925361983274}","{'avg': 2674.612650252419, 'med': 2680.2929662947017, 'perc95': 2923.1699573849487, 'min': 2223.4740450169093, 'max': 3103.079105643139}","{'avg': 2637.7876881410143, 'med': 2625.109583425517, 'perc95': 3391.574819213234, 'min': 1193.9860816765593, 'max': 4466.546067297894}","{'avg': 2565.5513155818217, 'med': 2585.086215773407, 'perc95': 3525.8816997041963, 'min': 475.3505674473672, 'max': 4523.824952343237}","{'avg': 2927.5386694255526, 'med': 2926.759157134536, 'perc95': 4333.053743336883, 'min': 478.8638729294689, 'max': 5678.221239469582}","{'avg': 1817.6398747590415, 'med': 1807.8091187296056, 'perc95': 2149.665455792665, 'min': 1312.3949598263016, 'max': 2392.671263991202}"
PlanD,"{'avg': 388.48184693234913, 'med': 386.1020690181626, 'perc95': 1739.637117605428, 'min': -2124.7265963959094, 'max': 2740.686679618439}","{'avg': 2953.8035675483497, 'med': 2934.5578218397313, 'perc95': 4186.896138481774, 'min': -13.810730628047168, 'max': 5193.406446902431}","{'avg': 1411.50062275433, 'med': 1401.5100820176922, 'perc95': 2011.7442512045377, 'min': 260.0964626799241, 'max': 2734.3648563599522}","{'avg': 2157.9954137845702, 'med': 2159.8167378890066, 'perc95': 2469.08850080272, 'min': 1467.094089239076, 'max': 2738.9440736727697}","{'avg': 508.6521555709693, 'med': 516.9757066493286, 'perc95': 780.5072135916921, 'min': 15.284481276053668, 'max': 942.712950424252}","{'avg': 3016.3957811273344, 'med': 3013.262381103485, 'perc95': 3876.148401813353, 'min': 1472.8237500482012, 'max': 4760.906284555704}","{'avg': 412.62568482955555, 'med': 424.3846034283811, 'perc95': 1506.1321614008145, 'min': -1712.0659903309281, 'max': 2516.7728588167565}","{'avg': 1031.126832787215, 'med': 950.5437210853262, 'perc95': 2538.6058761270233, 'min': -1893.0053021255237, 'max': 3453.7080306634925}","{'avg': 256.7158704382817, 'med': 256.35638935169567, 'perc95': 352.0118694683724, 'min': 79.93986211849548, 'max': 426.95885940984977}","{'avg': 2711.511972885865, 'med': 2666.0533473019905, 'perc95': 4100.764127073804, 'min': 355.7650318213259, 'max': 5150.1514377526955}","{'avg': 1515.0539950286852, 'med': 1517.9321662727048, 'perc95': 1917.440894781773, 'min': 713.7685191969315, 'max': 2247.9920383600474}","{'avg': 666.6908401964859, 'med': 655.8940445025266, 'perc95': 1401.19102261178, 'min': -653.1975875731795, 'max': 1958.4033545336497}","{'avg': 1205.2842288526851, 'med': 1166.7185436594955, 'perc95': 2603.9992896310578, 'min': -1554.1903247873388, 'max': 4222.508003704866}","{'avg': 1478.2240992650975, 'med': 1471.8876945236846, 'perc95': 1858.7375962815922, 'min': 827.4427700537447, 'max': 2270.4217662156725}","{'avg': 75.375551799657, 'med': 78.42236420182576, 'perc95': 1109.7582961602686, 'min': -1816.2123858436426, 'max': 2139.9040764315637}","{'avg': 897.2310782891162, 'med': 893.7006425393777, 'perc95': 1322.6537162435516, 'min': 71.22300333984367, 'max': 1646.5419720410873}","{'avg': 44.14629787366422, 'med': 37.84651819939803, 'perc95': 895.5017558644635, 'min': -1401.1618020135718, 'max': 1679.868442818115}","{'avg': 763.2088373608221, 'med': 813.8064326998712, 'perc95': 2131.7219920404605, 'min': -1902.5835261478273, 'max': 3465.2556656546567}","{'avg': 1328.9929857115615, 'med': 1312.6604613733514, 'perc95': 2032.1859738189141, 'min': 214.56808813105135, 'max': 2746.467858255355}","{'avg': 911.0844215667793, 'med': 893.4770679097029, 'perc95': 1803.203566637389, 'min': -790.9018632516647, 'max': 2416.511362225512}","{'avg': 2869.5696283371835, 'med': 2870.4305079541637, 'perc95': 3014.741866123544, 'min': 2587.286822126757, 'max': 3126.940882711222}","{'avg': 1722.2553771666012, 'med': 1710.9227001179217, 'perc95': 2619.182491409386, 'min': 257.70965444596345, 'max': 3482.13972049689}","{'avg': 598.1736216216841, 'med': 589.9118659864765, 'perc95': 2073.902990875913, 'min': -1938.9006142852315, 'max': 3595.518592688325}","{'avg': 2629.5428133124674, 'med': 2626.7543231194586, 'perc95': 2739.2206847809284, 'min': 2423.5782652560374, 'max': 2831.8077971511702}","{'avg': 119.89144891115781, 'med': 123.69191325259041, 'perc95': 607.1883578221434, 'min': -868.0724639991449, 'max': 936.5627058322806}"
