Plan,KPI19,KPI13,KPI11,KPI25,KPI17,KPI1,KPI10,KPI2,KPI18,KPI22,KPI5,KPI8,KPI7,KPI23,KPI21,KPI3,KPI15,KPI24,KPI4,KPI14,KPI12,KPI6,KPI16,KPI9,KPI20
PlanA,"{'avg': 1783.5625773500915, 'med': 1779.7124542148374, 'perc95': 2437.4313463230255, 'min': 785.96830812873, 'max': 2782.5005303855673}","{'avg': 734.7444509503956, 'med': 741.9293775770119, 'perc95': 1127.334242678703, 'min': 72.72133898066102, 'max': 1467.5853822431263}","{'avg': 28.405303136830817, 'med': 36.46649840433716, 'perc95': 352.59762872485146, 'min': -660.6530711596154, 'max': 642.3496002602777}","{'avg': 816.6612712822458, 'med': 806.403341449282, 'perc95': 1540.7224701557218, 'min': -451.9154249483977, 'max': 2348.960156249559}","{'avg': 2370.2301297575414, 'med': 2372.5699794842126, 'perc95': 2850.1570067341345, 'min': 1414.1976904532276, 'max': 3123.4160060344993}","{'avg': 525.8479771713296, 'med': 525.4305122422553, 'perc95': 1884.2863836835745, 'min': -1782.0737110428736, 'max': 3251.344452720226}","{'avg': 33.37628817184987, 'med': 26.94475401812011, 'perc95': 736.9687624936366, 'min': -1162.6516437338894, 'max': 1191.0839305027112}","{'avg': 2383.2795205766365, 'med': 2373.332061595628, 'perc95': 3470.956417084785, 'min': 430.2701317664191, 'max': 4266.253375139721}","{'avg': 2994.6917327539604, 'med': 2939.060900446045, 'perc95': 4064.1038809822876, 'min': 1179.9521302138396, 'max': 5693.952060545329}","{'avg': 480.7729382535918, 'med': 477.6845215640683, 'perc95': 846.7676849488377, 'min': -125.0773181497172, 'max': 1237.2671720308394}","{'avg': 61.346693382022195, 'med': 40.771363610012266, 'perc95': 1409.9561255852734, 'min': -2877.873396352987, 'max': 2619.776641954512}","{'avg': 2389.5647556184135, 'med': 2381.922879842363, 'perc95': 3059.554429601615, 'min': 1030.3330694000167, 'max': 3514.515192677738}","{'avg': 489.7906549482728, 'med': 488.98176195682805, 'perc95': 616.7070169975475, 'min': 281.93443177575034, 'max': 708.6167750350792}","{'avg': 2436.520158831075, 'med': 2392.563555181625, 'perc95': 3653.6748922964803, 'min': 328.20127812634564, 'max': 5094.199208868168}","{'avg': 2985.0738875691322, 'med': 2975.173185588563, 'perc95': 4086.519486613893, 'min': 906.149381031677, 'max': 5396.437037328306}","{'avg': 946.9114179573451, 'med': 949.4129833362093, 'perc95': 1461.947814545364, 'min': -247.9247495214206, 'max': 1957.9647882757422}","{'avg': 2435.0386567798105, 'med': 2430.622884300139, 'perc95': 3304.200361241457, 'min': 819.0707628977304, 'max': 4302.699294751974}","{'avg': 216.70985672141896, 'med': 208.69692285249425, 'perc95': 1841.6275555945817, 'min': -2696.6059328234505, 'max': 3189.356045082951}","{'avg': 1933.357397621148, 'med': 1913.6492037319624, 'perc95': 2652.983076321818, 'min': 382.29657641756717, 'max': 3307.460588265969}","{'avg': 1944.0796476853018, 'med': 1957.269412492006, 'perc95': 3186.4767630675565, 'min': -595.7982451445719, 'max': 4219.066491417654}","{'avg': 2748.448688698235, 'med': 2720.530777644338, 'perc95': 3682.3902363908724, 'min': 956.865265702241, 'max': 4640.586479623008}","{'avg': 2606.992102361515, 'med': 2607.7152479138535, 'perc95': 2794.240917332806, 'min': 2329.9143942442424, 'max': 3009.45377820733}","{'avg': 2799.831335035074, 'med': 2820.4028112404226, 'perc95': 3833.628896517778, 'min': 1064.1561612649593, 'max': 4730.2663748912}","{'avg': 2736.2723546891243, 'med': 2755.343390362799, 'perc95': 4076.3640668732287, 'min': 725.4806668183282, 'max': 5714.2796285366485}","{'avg': 588.0454974713009, 'med': 592.8028329331597, 'perc95': 2125.814824044346, 'min': -2370.212212351873, 'max': 3576.6677822269553}"
PlanB,"{'avg': 1646.918874307462, 'med': 1658.219684218124, 'perc95': 2307.137597065618, 'min': 506.8425147674782, 'max': 3186.4914002268933}","{'avg': 1259.2134783361755, 'med': 1244.8934845799631, 'perc95': 1651.4731214443357, 'min': 578.8896376335614, 'max': 1911.6086604139946}","{'avg': 2518.929203169298, 'med': 2518.8267425690874, 'perc95': 2894.982052053865, 'min': 1698.2519187394482, 'max': 3174.910731210306}","{'avg': 2639.095289429709, 'med': 2674.95171149749, 'perc95': 4031.245029121249, 'min': -247.09247217974507, 'max': 5316.635637965126}","{'avg': 2908.120945777398, 'med': 2915.932099904857, 'perc95': 3741.804851641924, 'min': 1333.2793481603114, 'max': 4585.071503760072}","{'avg': 1546.9137666499994, 'med': 1542.2502780673517, 'perc95': 2447.260169579534, 'min': 4.876997586377001, 'max': 3532.9189025543237}","{'avg': 2797.6898757064537, 'med': 2813.969349312754, 'perc95': 3720.040019186443, 'min': 1169.8735498800593, 'max': 4445.29502637452}","{'avg': 142.7913861864817, 'med': 147.56489556784555, 'perc95': 963.4977535843719, 'min': -1444.449783610974, 'max': 2033.3010352799743}","{'avg': 2172.893991279586, 'med': 2173.982900712442, 'perc95': 2570.6835099324758, 'min': 1417.1995361343593, 'max': 2910.6279545326474}","{'avg': 2076.0131479078036, 'med': 2071.2204126338993, 'perc95': 3044.9708284517747, 'min': 469.4650072421264, 'max': 3950.6968493247855}","{'avg': 572.3926250953974, 'med': 576.7334188247121, 'perc95': 1850.2647235468617, 'min': -1745.8638047286145, 'max': 3102.435985111753}","{'avg': 1126.8333222971303, 'med': 1093.3261110053688, 'perc95': 2707.3169172536004, 'min': -1388.6745789206277, 'max': 3642.715889364883}","{'avg': 1148.3287331344618, 'med': 1166.9032272891434, 'perc95': 2267.7369689847587, 'min': -675.4051855712937, 'max': 3250.245406871563}","{'avg': 853.0427639722361, 'med': 847.1642001392628, 'perc95': 1928.775594012101, 'min': -1159.570503933112, 'max': 2504.2227767856266}","{'avg': 626.7423752722051, 'med': 604.4448769593264, 'perc95': 1754.6117039040212, 'min': -2044.2286128918659, 'max': 2637.4286694482394}","{'avg': 2266.408085321428, 'med': 2290.859737565167, 'perc95': 3181.119460833208, 'min': 476.1571305058444, 'max': 3925.3306875829594}","{'avg': 1255.4238893207903, 'med': 1257.0723327040162, 'perc95': 1656.0339775961932, 'min': 340.69100414022114, 'max': 2032.6909528584729}","{'avg': 89.80704425898554, 'med': 109.85093217458517, 'perc95': 953.3595864269143, 'min': -1913.6849148670517, 'max': 1743.9080800911204}","{'avg': 2375.8676205564702, 'med': 2369.9478013609364, 'perc95': 3460.8369855337023, 'min': 160.75852506599222, 'max': 4183.375962947087}","{'avg': 1680.015708553521, 'med': 1686.1656477674812, 'perc95': 2135.6362207942634, 'min': 781.2810752536973, 'max': 2653.6289557970717}","{'avg': 1352.4009254044165, 'med': 1346.8190433137993, 'perc95': 1926.113728647256, 'min': 186.37893135394324, 'max': 2376.781890843199}","{'avg': 1827.9580184534807, 'med': 1827.5702656244305, 'perc95': 1924.9983334182161, 'min': 1635.2994357672683, 'max': 2018.0118779836653}","{'avg': 1505.401316729689, 'med': 1480.2768269704407, 'perc95': 2781.4885412778317, 'min': -746.2067685408263, 'max': 4547.1175361091155}","{'avg': 1661.2264266841592, 'med': 1655.1737884662703, 'perc95': 2389.3769047281753, 'min': 375.7397366525522, 'max': 3025.5721468632996}","{'avg': 1864.9132458167312, 'med': 1895.1247097639666, 'perc95': 2981.5040976289624, 'min': 188.396700629924, 'max': 4037.256415076936}"
PlanC,"{'avg': 1154.9863456356054, 'med': 1143.5725899409922, 'perc95': 2147.114241239404, 'min': -532.1427844773582, 'max': 2944.050593570113}","{'avg': 450.96335391876096, 'med': 460.8889258093566, 'perc95': 1491.2795900690085, 'min': -1582.704848472464, 'max': 2746.9988205568493}","{'avg': 840.7414634271704, 'med': 837.9675724782335, 'perc95': 1184.8823667717245, 'min': 183.81022517706867, 'max': 1532.7874228428004}","{'avg': 2316.1170950374485, 'med': 2313.67204269773, 'perc95': 3419.792702221395, 'min': -205.26708713818698, 'max': 4348.316854510431}","{'avg': 2345.808810525377, 'med': 2363.510435999494, 'perc95': 3071.5572841726666, 'min': 1043.7436287751095, 'max': 3469.107675011226}","{'avg': 2765.966528189348, 'med': 2779.679882541874, 'perc95': 3499.400838059968, 'min': 1280.2048783526036, 'max': 4289.254746261547}","{'avg': 1436.7151771454235, 'med': 1438.3104166167604, 'perc95': 1908.9483243132333, 'min': 530.3368685060187, 'max': 2357.9500773962454}","{'avg': 700.4874722509412, 'med': 700.0392972894615, 'perc95': 842.2475331317521, 'min': 438.4827815178445, 'max': 937.2086767977283}","{'avg': 2232.9154333957035, 'med': 2204.9592232497503, 'perc95': 3341.8154373239377, 'min': 222.04527798914864, 'max': 4673.490461107893}","{'avg': 1671.476609582562, 'med': 1699.805500677296, 'perc95': 2964.5669814605653, 'min': -833.2104714447403, 'max': 3916.7366946341263}","{'avg': 2163.9036525754937, 'med': 2180.8208381867094, 'perc95': 3644.7218602354797, 'min': -1020.4338434366778, 'max': 5516.560018042905}","{'avg': 720.2927220906611, 'med': 754.8411892529314, 'perc95': 1467.4666072451532, 'min': -716.6385386760397, 'max': 2277.8038037795804}","{'avg': 1765.620697115066, 'med': 1762.9664580058081, 'perc95': 2016.8514510496757, 'min': 1264.1287453677037, 'max': 2210.9402199965307}","{'avg': 2585.205352255955, 'med': 2571.741561224208, 'perc95': 3046.6943808454853, 'min': 1746.592498768061, 'max': 3516.8814206750794}","{'avg': 86.51585736138216, 'med': 72.11259236622145, 'perc95': 775.1781699462286, 'min': -1119.1348246104883, 'max': 1261.2492867834094}","{'avg': 2350.0001251539306, 'med': 2349.2473675154783, 'perc95': 2499.49142130671, 'min': 2041.7582327858522, 'max': 2618.777538496295}","{'avg': 2895.0335974104332, 'med': 2894.9466925708243, 'perc95': 2983.363530362796, 'min': 2727.8024757949906, 'max': 3034.3189524033296}","{'avg': 2112.1070771180953, 'med': 2104.0769488151936, 'perc95': 2491.0666771508595, 'min': 1329.1239620434444, 'max': 2827.149210413389}","{'avg': 828.1005224214093, 'med': 832.9425193217459, 'perc95': 1438.1370620311652, 'min': -502.25723262612064, 'max': 2023.2293893312644}","{'avg': 466.0356813447783, 'med': 436.47395568551667, 'perc95': 1510.2678697389297, 'min': -1813.4481193383224, 'max': 2852.5567903390593}","{'avg': 2668.865821160482, 'med': 2666.7598856442833, 'perc95': 2922.349930471846, 'min': 2177.006271529313, 'max': 3132.537158469373}","{'avg': 2671.3399443824233, 'med': 2665.205586452675, 'perc95': 3498.833368825063, 'min': 1301.1106678915207, 'max': 4212.382852661975}","{'avg': 2489.7193541535817, 'med': 2488.62991040595, 'perc95': 3533.165711554343, 'min': 596.1095473968705, 'max': 4449.715082460909}","{'avg': 2917.959653336031, 'med': 2894.2330304091406, 'perc95': 4417.059524199083, 'min': 440.8838421538726, 'max': 5394.038093748645}","{'avg': 1815.604009090293, 'med': 1807.9614963360239, 'perc95': 2134.3119626855996, 'min': 1319.837786597892, 'max': 2394.2301521950744}"
PlanD,"{'avg': 398.68149925288276, 'med': 402.9476962461422, 'perc95': 1744.3266044687298, 'min': -1942.7519857918367, 'max': 2745.615254873377}","{'avg': 2848.583539221743, 'med': 2856.2715973546487, 'perc95': 4209.795197919548, 'min': 545.5558475452458, 'max': 5337.565886705213}","{'avg': 1388.4093454951585, 'med': 1390.2653522806995, 'perc95': 1974.380002418032, 'min': 113.8525063428176, 'max': 2693.7970137140073}","{'avg': 2168.987709999093, 'med': 2176.7488649092434, 'perc95': 2492.441003816354, 'min': 1515.5840785234577, 'max': 2764.50173816675}","{'avg': 487.6380550281287, 'med': 484.00994916762, 'perc95': 750.2535007841941, 'min': 45.794747839752745, 'max': 993.0976472077186}","{'avg': 2995.3770529542817, 'med': 2985.499098378383, 'perc95': 3907.8978158828336, 'min': 1486.629000774085, 'max': 4926.655259897947}","{'avg': 480.0448683800451, 'med': 464.26157216714194, 'perc95': 1491.1769967398632, 'min': -1550.207043763855, 'max': 2331.518238873501}","{'avg': 1033.490369958599, 'med': 1073.505037116998, 'perc95': 2584.6310272665005, 'min': -2021.2818289010158, 'max': 4724.631106045294}","{'avg': 258.6390746621885, 'med': 260.0299536536138, 'perc95': 355.72581038075657, 'min': 95.64295799029449, 'max': 428.86584996093484}","{'avg': 2636.4826561604063, 'med': 2656.0788651810913, 'perc95': 3976.4129001506462, 'min': 56.62911090096259, 'max': 4961.188199034845}","{'avg': 1510.512281525594, 'med': 1526.7735358764014, 'perc95': 1894.946778508113, 'min': 783.9896200472874, 'max': 2324.747870932705}","{'avg': 679.0725320420196, 'med': 696.9407498080606, 'perc95': 1356.1450715254919, 'min': -759.7418570764349, 'max': 1899.5525175623852}","{'avg': 1270.5876354461357, 'med': 1257.5030454234832, 'perc95': 2672.705825807658, 'min': -1359.0524165232769, 'max': 4009.842209155431}","{'avg': 1495.6736532640268, 'med': 1492.7708909954993, 'perc95': 1837.9039846276967, 'min': 839.4386422810109, 'max': 2104.082786976839}","{'avg': 72.51397115753943, 'med': 47.56981420519206, 'perc95': 1170.665146023381, 'min': -1836.7525984259241, 'max': 2195.8497798450053}","{'avg': 901.139605608667, 'med': 915.9170179186939, 'perc95': 1318.3189092424536, 'min': 114.39519157335496, 'max': 1740.2800448031464}","{'avg': 82.64851248743574, 'med': 69.17924642861735, 'perc95': 963.508273211681, 'min': -1494.7989506022614, 'max': 1498.8015306603252}","{'avg': 795.5077441841878, 'med': 754.0237714066776, 'perc95': 2327.389881624308, 'min': -2042.8554542181528, 'max': 3586.6698580590055}","{'avg': 1290.3507394462688, 'med': 1293.8515545365908, 'perc95': 1984.644050168656, 'min': -253.75734047643755, 'max': 2506.098489969939}","{'avg': 917.1547193560295, 'med': 928.1466581881003, 'perc95': 1817.0521584476887, 'min': -537.6826471135375, 'max': 2730.062324764648}","{'avg': 2876.288330411314, 'med': 2878.406823748554, 'perc95': 3010.761442243995, 'min': 2556.8102818921616, 'max': 3152.961743279159}","{'avg': 1667.8761734581883, 'med': 1673.042260234289, 'perc95': 2523.9889155252104, 'min': -348.94225613154913, 'max': 3206.3954866942995}","{'avg': 716.1022001430364, 'med': 714.6979768298165, 'perc95': 2197.5527603452615, 'min': -2032.8456258121967, 'max': 3228.9975244696034}","{'avg': 2628.691480532276, 'med': 2631.278756906645, 'perc95': 2735.1694849059804, 'min': 2428.270051187419, 'max': 2825.5565386025746}","{'avg': 128.37758890675207, 'med': 120.16338694646707, 'perc95': 647.4136981074182, 'min': -674.2493661244085, 'max': 1040.7690683186538}"
