Plan,KPI19,KPI13,KPI11,KPI25,KPI17,KPI1,KPI10,KPI2,KPI18,KPI22,KPI5,KPI8,KPI7,KPI23,KPI21,KPI3,KPI15,KPI24,KPI4,KPI14,KPI12,KPI6,KPI16,KPI9,KPI20
PlanA,"{'avg': 1747.2245170727376, 'med': 1730.272351776794, 'perc95': 2335.0135099476593, 'min': 714.9163767192451, 'max': 2806.9494715144842}","{'avg': 741.9760552554856, 'med': 738.6216934973585, 'perc95': 1146.5162558754282, 'min': -37.61498519773147, 'max': 1447.2199445455688}","{'avg': 14.885779131206156, 'med': 15.812862578037075, 'perc95': 348.87135318770174, 'min': -486.3939466535753, 'max': 627.1624849916814}","{'avg': 798.6990413311821, 'med': 788.5629929141818, 'perc95': 1521.5678836689406, 'min': -508.8996766832729, 'max': 2005.071818903315}","{'avg': 2363.4511703027692, 'med': 2356.612174339142, 'perc95': 2841.111118783231, 'min': 1528.8822754303544, 'max': 3258.7105695220134}","{'avg': 531.5106398319065, 'med': 569.8315800334008, 'perc95': 1946.2354426763607, 'min': -2180.7066875312335, 'max': 2763.1004942007166}","{'avg': 60.81417660560875, 'med': 74.62525660586851, 'perc95': 741.3640985428469, 'min': -1300.3728822027606, 'max': 1257.8946961435088}","{'avg': 2360.7238599774328, 'med': 2381.8618936501407, 'perc95': 3395.9522548361456, 'min': 202.95336867094193, 'max': 4082.283103535707}","{'avg': 2949.003761532794, 'med': 2952.9610427871994, 'perc95': 4050.7409296613114, 'min': 547.6561662051395, 'max': 5007.689200079083}","{'avg': 475.9846884267424, 'med': 484.3979082233532, 'perc95': 821.1295779486957, 'min': -150.8934381811012, 'max': 1283.3980695946136}","{'avg': 0.47182075394515466, 'med': -29.855579162009192, 'perc95': 1341.7243760235715, 'min': -2326.788857031465, 'max': 2720.1347140483517}","{'avg': 2413.0524387623923, 'med': 2405.9036926188996, 'perc95': 3097.0378300141706, 'min': 970.9267518655154, 'max': 3615.836974561883}","{'avg': 487.9221830352012, 'med': 485.74123293676126, 'perc95': 634.0344812355984, 'min': 261.1577610537334, 'max': 761.0202153419793}","{'avg': 2427.5346415784893, 'med': 2410.7896564911416, 'perc95': 3567.9746425942058, 'min': 490.6560386987908, 'max': 4736.73738203402}","{'avg': 2978.2920739729707, 'med': 2952.0884048488215, 'perc95': 3981.5631324861633, 'min': 1070.058789524439, 'max': 5262.217761144206}","{'avg': 928.5667898315177, 'med': 920.9593777363725, 'perc95': 1494.2880676968446, 'min': -36.78405771677387, 'max': 1902.1986049861698}","{'avg': 2415.93845938505, 'med': 2411.7259902094743, 'perc95': 3270.9089914455535, 'min': 773.0487380911588, 'max': 4378.486393503508}","{'avg': 286.00267430440186, 'med': 279.2513801140883, 'perc95': 1845.1047763897918, 'min': -2724.5638935791826, 'max': 3146.787630282223}","{'avg': 1953.7641514756021, 'med': 1937.1218741322357, 'perc95': 2725.0126748919765, 'min': 488.0790547240722, 'max': 3658.0899517097623}","{'avg': 1929.3472365838666, 'med': 1936.6335748100594, 'perc95': 3151.8723173671174, 'min': -133.0905706868284, 'max': 4520.421746676862}","{'avg': 2727.224655210022, 'med': 2706.863144840233, 'perc95': 3740.670755381825, 'min': 720.1414891078398, 'max': 4735.20927186359}","{'avg': 2609.635717817065, 'med': 2605.8844997021024, 'perc95': 2794.0102589660746, 'min': 2327.9123425202906, 'max': 3005.0712195488873}","{'avg': 2822.6601123128785, 'med': 2804.891679028513, 'perc95': 3823.4537792886417, 'min': 618.5636056665157, 'max': 4738.2294999963}","{'avg': 2787.8915606416426, 'med': 2788.080077490886, 'perc95': 4111.027728529387, 'min': 131.1276003453945, 'max': 5055.845286464868}","{'avg': 484.80027295949736, 'med': 525.8269820892535, 'perc95': 2079.757805492676, 'min': -3221.101164659659, 'max': 3672.073676870626}"
PlanB,"{'avg': 1658.1274814212568, 'med': 1650.056242437625, 'perc95': 2306.3133919821225, 'min': 324.4145528925292, 'max': 2811.992531005114}","{'avg': 1245.6867960431218, 'med': 1252.4874961109736, 'perc95': 1611.4741170237085, 'min': 520.0201134986482, 'max': 1944.7514941624581}","{'avg': 2525.5864613608587, 'med': 2521.4700691804637, 'perc95': 2851.7807764490763, 'min': 1856.0604723068209, 'max': 3042.2858173081777}","{'avg': 2669.9101111436357, 'med': 2684.9661161563968, 'perc95': 4198.374332702028, 'min': -106.08430460578575, 'max': 4981.271699730043}","{'avg': 2929.2795701783493, 'med': 2903.5730594505308, 'perc95': 3730.992495976633, 'min': 1183.8473600712211, 'max': 4411.108217060171}","{'avg': 1516.345077742317, 'med': 1527.0419300237556, 'perc95': 2394.086567251755, 'min': -128.37073887057, 'max': 3119.8449951285465}","{'avg': 2833.1828906558294, 'med': 2840.154013301148, 'perc95': 3793.992113498467, 'min': 1358.0097594374995, 'max': 4678.96582283922}","{'avg': 206.79906571572215, 'med': 202.85274337380173, 'perc95': 1072.045597254311, 'min': -1351.0767331044367, 'max': 2156.014946008027}","{'avg': 2163.331172218965, 'med': 2162.7811476446045, 'perc95': 2567.121295053179, 'min': 1359.5404555446785, 'max': 2898.6258279904027}","{'avg': 2016.3501912411023, 'med': 1974.9679966806364, 'perc95': 3148.0499275658003, 'min': -438.3540015639294, 'max': 3919.95080307598}","{'avg': 552.6243079292046, 'med': 524.9865754167528, 'perc95': 1841.5247072090888, 'min': -2331.4870162109596, 'max': 2758.2719905961694}","{'avg': 1064.9149044803962, 'med': 1016.1634251060515, 'perc95': 2729.297307000182, 'min': -1406.7004206479658, 'max': 3873.882980488602}","{'avg': 1196.2145279513431, 'med': 1224.0252415189161, 'perc95': 2281.4565128445065, 'min': -797.2807681649404, 'max': 3012.6565402226215}","{'avg': 816.2977741835676, 'med': 797.5253535176652, 'perc95': 1849.6135776432848, 'min': -1023.1216605392095, 'max': 2902.4231776073343}","{'avg': 670.3955981713339, 'med': 654.0121218526401, 'perc95': 1872.7254457306647, 'min': -1571.560426832736, 'max': 2786.976215644195}","{'avg': 2228.2110576196883, 'med': 2210.246824355912, 'perc95': 3228.892061324684, 'min': 371.9553463403545, 'max': 4374.434579995042}","{'avg': 1266.3160986102987, 'med': 1262.3227663323648, 'perc95': 1677.7388139417376, 'min': 397.7845058153739, 'max': 2087.1064821795644}","{'avg': 15.401508528752151, 'med': 18.722426840922303, 'perc95': 956.4716279972761, 'min': -1816.7081301539852, 'max': 1755.2038068373133}","{'avg': 2414.171341839297, 'med': 2385.462121510379, 'perc95': 3484.5306554652307, 'min': 548.8695193384365, 'max': 4593.781797773425}","{'avg': 1681.711283464614, 'med': 1677.8228962264548, 'perc95': 2184.045815245352, 'min': 813.8993016801753, 'max': 2639.871467402023}","{'avg': 1299.953405390995, 'med': 1305.2414538492346, 'perc95': 1872.5358581673008, 'min': 276.9333198406223, 'max': 2315.7345188128793}","{'avg': 1826.28398721582, 'med': 1827.4753758035695, 'perc95': 1927.2509910410245, 'min': 1646.9024569395765, 'max': 2020.8384551521883}","{'avg': 1503.5784071455755, 'med': 1493.4900690957336, 'perc95': 2758.082451296869, 'min': -1065.7622726015286, 'max': 4029.626235270588}","{'avg': 1653.8238291140606, 'med': 1652.1213859045872, 'perc95': 2369.489493856668, 'min': 78.69119824224822, 'max': 2901.366734877365}","{'avg': 1858.0258780945594, 'med': 1827.5732485025228, 'perc95': 3129.821497709089, 'min': -358.0364549520634, 'max': 3997.3139728087126}"
PlanC,"{'avg': 1168.4694987371745, 'med': 1155.3511261705478, 'perc95': 2172.002182289757, 'min': -321.984340824692, 'max': 2762.2717569239635}","{'avg': 448.11944377863585, 'med': 443.91145142312905, 'perc95': 1475.9086194291594, 'min': -1399.8891959814428, 'max': 2269.8754862381948}","{'avg': 835.3134842694025, 'med': 829.8584467597249, 'perc95': 1174.8674008477124, 'min': 170.974098335701, 'max': 1619.2449657244151}","{'avg': 2305.579442177919, 'med': 2319.636300667083, 'perc95': 3362.821414188963, 'min': 181.90888986837308, 'max': 4280.057447004549}","{'avg': 2339.866896776154, 'med': 2319.718166822628, 'perc95': 3067.4284846275013, 'min': 766.1051076056206, 'max': 3988.9342938942164}","{'avg': 2730.545443004122, 'med': 2751.547504998484, 'perc95': 3553.1584225428105, 'min': 1211.1936276984538, 'max': 4208.54233597798}","{'avg': 1452.131584108826, 'med': 1450.7180142237366, 'perc95': 1927.7541169111867, 'min': 515.8191984048453, 'max': 2274.184534861563}","{'avg': 705.1904424653152, 'med': 705.4560642853603, 'perc95': 840.0461949483022, 'min': 478.3120496554418, 'max': 965.945954679195}","{'avg': 2177.1907687895523, 'med': 2218.20691826804, 'perc95': 3322.0025975374074, 'min': -215.46210986221195, 'max': 4722.3609917564745}","{'avg': 1770.689968164885, 'med': 1772.7602220265528, 'perc95': 3177.5984105080734, 'min': -650.661931101349, 'max': 3912.1911958225564}","{'avg': 2185.704351765468, 'med': 2222.832859380671, 'perc95': 3615.7072364883516, 'min': -1059.516431844003, 'max': 5407.684666567601}","{'avg': 760.4501489439233, 'med': 751.177869675315, 'perc95': 1614.38448154362, 'min': -945.4033792555912, 'max': 2295.0447853452233}","{'avg': 1779.270042588631, 'med': 1779.2635848712484, 'perc95': 2026.469847047365, 'min': 1319.3822328030296, 'max': 2320.416596262774}","{'avg': 2605.1073943478527, 'med': 2600.3719922746122, 'perc95': 3045.4046192568403, 'min': 1938.87497452731, 'max': 3631.8072036956855}","{'avg': 68.5404286359053, 'med': 81.52198264940573, 'perc95': 731.9788421158614, 'min': -1495.9624911701649, 'max': 1401.3947733627044}","{'avg': 2349.480866404415, 'med': 2351.280477406603, 'perc95': 2498.1028763710706, 'min': 2074.4515815945465, 'max': 2623.2214080243402}","{'avg': 2892.7944642476987, 'med': 2895.6739470286198, 'perc95': 2979.566473456942, 'min': 2726.03199839241, 'max': 3032.5073816418644}","{'avg': 2076.3493430930366, 'med': 2066.7147496677517, 'perc95': 2486.679461423864, 'min': 1391.8723289747727, 'max': 2873.4937491472374}","{'avg': 860.5265614892189, 'med': 850.4466643355681, 'perc95': 1500.7180116565403, 'min': -287.24713752548496, 'max': 2049.660447818473}","{'avg': 428.3317817224431, 'med': 439.21450963750544, 'perc95': 1492.9629893032352, 'min': -1301.7032816321437, 'max': 2770.760944129731}","{'avg': 2669.024985185519, 'med': 2658.1642138303114, 'perc95': 2934.406399476329, 'min': 2239.5039876038445, 'max': 3113.290322185486}","{'avg': 2663.6281604129103, 'med': 2659.5106604633534, 'perc95': 3464.3719545349245, 'min': 1354.090832464378, 'max': 4391.524734981278}","{'avg': 2537.488542777439, 'med': 2543.187602226557, 'perc95': 3544.693300852035, 'min': 651.5496075662711, 'max': 5073.900834808281}","{'avg': 2922.576693649706, 'med': 2933.6776731605396, 'perc95': 4222.297716005158, 'min': 654.9624036283676, 'max': 5372.003435403274}","{'avg': 1820.4484595826, 'med': 1814.5026121026715, 'perc95': 2153.6108747420913, 'min': 1298.9203064024332, 'max': 2384.6484628673606}"
PlanD,"{'avg': 351.78489489109387, 'med': 397.57770641845116, 'perc95': 1717.804145144044, 'min': -2419.52865410503, 'max': 3452.6910785985083}","{'avg': 2936.772548248052, 'med': 2900.5483237199896, 'perc95': 4281.316076415757, 'min': 796.2040414937701, 'max': 5508.754607698939}","{'avg': 1405.1256540888187, 'med': 1406.971711709346, 'perc95': 2041.8528535870694, 'min': -1.201812490926386, 'max': 2591.2776636273293}","{'avg': 2167.0904640356985, 'med': 2167.936022986797, 'perc95': 2531.4522186541585, 'min': 1469.2608244658697, 'max': 2951.388905604887}","{'avg': 506.77836949229766, 'med': 508.8881927432112, 'perc95': 779.8849298471241, 'min': 23.64090623862444, 'max': 949.4333864039409}","{'avg': 2986.2203691822397, 'med': 3014.8657819325626, 'perc95': 3833.6484622144926, 'min': 1165.712722035582, 'max': 4478.0481997627685}","{'avg': 427.6135771622627, 'med': 441.4504377081997, 'perc95': 1446.0785894038881, 'min': -1938.773110535967, 'max': 2215.8409297091403}","{'avg': 1048.8364725584138, 'med': 1076.6661534262557, 'perc95': 2696.0489703162116, 'min': -2426.44461542354, 'max': 3950.1074623187887}","{'avg': 256.69588189912884, 'med': 254.7215755375817, 'perc95': 353.8317419900412, 'min': 87.16032167548585, 'max': 465.9579916524998}","{'avg': 2611.5771136369726, 'med': 2611.6559498143597, 'perc95': 3992.1398870003704, 'min': 291.01242161344544, 'max': 5413.31357489048}","{'avg': 1522.6593446553672, 'med': 1525.9307152935235, 'perc95': 1937.384543787131, 'min': 741.7206035959313, 'max': 2307.714807966495}","{'avg': 645.7341555915169, 'med': 655.271335586559, 'perc95': 1312.9002934940418, 'min': -540.5718001690633, 'max': 1885.4356461372604}","{'avg': 1235.2523573216695, 'med': 1261.7452438286232, 'perc95': 2615.5084625888276, 'min': -2445.5540525504375, 'max': 3384.1801889138364}","{'avg': 1476.0041794836793, 'med': 1490.7203504019342, 'perc95': 1812.035638601444, 'min': 778.3457802886422, 'max': 2281.945167658564}","{'avg': 27.266733430309646, 'med': 58.933186606553384, 'perc95': 1082.1872887444408, 'min': -2027.3143674431258, 'max': 2018.4029549974766}","{'avg': 885.5110231434927, 'med': 870.1294946446862, 'perc95': 1332.6350166518137, 'min': 63.498861538525375, 'max': 1690.450165135003}","{'avg': 61.312867821173924, 'med': 66.92942757223898, 'perc95': 928.9745388011634, 'min': -1450.8857453542437, 'max': 1816.767789778919}","{'avg': 785.0777454772908, 'med': 761.9270554475056, 'perc95': 2293.5568025591815, 'min': -2066.1132188577, 'max': 3500.9662402536133}","{'avg': 1307.5950193359415, 'med': 1303.9813093220005, 'perc95': 1968.3825970624903, 'min': 255.6180693503709, 'max': 2855.5423080807313}","{'avg': 915.2852572390218, 'med': 917.6344389203531, 'perc95': 1736.5954617828684, 'min': -708.236703979155, 'max': 2797.3598973836324}","{'avg': 2872.6432979304454, 'med': 2877.336374407588, 'perc95': 2996.7068613537995, 'min': 2585.9695111446854, 'max': 3158.567363682331}","{'avg': 1665.6932383072806, 'med': 1674.5218669743128, 'perc95': 2535.0018649335907, 'min': 164.1057995688634, 'max': 3420.282343067157}","{'avg': 669.7000431305197, 'med': 633.5389120713822, 'perc95': 2174.141495178452, 'min': -2409.463477921481, 'max': 3470.736376653409}","{'avg': 2631.4230144110015, 'med': 2633.952724204186, 'perc95': 2729.9260147952928, 'min': 2407.2060886979243, 'max': 2823.0176068447972}","{'avg': 137.09860305559877, 'med': 133.95710125380873, 'perc95': 618.1037575823522, 'min': -822.788258645949, 'max': 1150.3623703376172}"
